Unnamed: 0,Current,Voltage,file_name
0,0.0,-0.761355,_conductivity_after_annealing.csv
1,8e-10,1.98528,_conductivity_after_annealing.csv
2,1.6e-09,9.91e+37,_conductivity_after_annealing.csv
3,2.4e-09,9.91e+37,_conductivity_after_annealing.csv
4,3.2e-09,9.91e+37,_conductivity_after_annealing.csv
5,4e-09,9.91e+37,_conductivity_after_annealing.csv
