x_(nm),log_A_f_mean
350.0143298352289,0.0022604439446401135
350.52716633522897,0.0022584866144882876
351.039897485229,0.0022580323943914033
351.5525232852289,0.002259021273628517
352.0650437352289,0.002260140760503486
352.5774588352289,0.0022598154575956394
353.0897685852289,0.0022580286309184113
353.6019729852289,0.002254933828533682
354.11407203522896,0.002249977015254555
354.62606573522896,0.0022429656902811217
355.13795408522896,0.002234574991397804
355.64973708522894,0.0022261219615577464
356.161414735229,0.0022186208472722404
356.67298703522897,0.002212251301805847
357.18445398522886,0.0022070542633705974
357.695815585229,0.0022034016470774214
358.2070718352289,0.0022014700060340605
358.718222735229,0.0022005664637057584
359.229268285229,0.0022004745195528816
359.74020848522883,0.002201856604231964
360.251043335229,0.002204686474772227
360.7617728352289,0.0022083254355158223
361.27239698522897,0.002212157416076777
361.78291578522897,0.0022165795765369516
362.293329235229,0.002222367462941252
362.8036373352289,0.0022292287574819753
363.3138400852289,0.0022369712915083074
363.8239374852289,0.0022461963534775187
364.3339295352289,0.002257729111431942
364.8438162352289,0.002272128341662137
365.3535975852289,0.0022888340765440537
365.8632735852289,0.002306398284838092
366.37284423522885,0.0023239183747123166
366.882309535229,0.002341014205553664
367.39166948522893,0.002357118018006517
367.90092408522895,0.002371511675047656
368.4100733352289,0.0023837819783251667
368.91911723522895,0.0023935770164736597
369.42805578522893,0.002400075637045565
369.93688898522896,0.002402545674696494
370.4456168352289,0.0024007984842533475
370.954239335229,0.0023956557930674225
371.46275648522897,0.0023882952006666265
371.97116828522894,0.0023791185680301107
372.479474735229,0.0023681612752855285
372.987675835229,0.002354504197563617
373.49577158522885,0.0023363154044251664
374.00376198522895,0.002311873381470989
374.511647035229,0.0022798338720960423
375.01942673522893,0.0022399967996344044
375.527101085229,0.002193228736153943
376.034670085229,0.0021410233137755716
376.54213373522896,0.0020864266189949696
377.049492035229,0.0020338720207705883
377.55674498522893,0.0019873429425148244
378.0638925852289,0.0019493209045694192
378.5709348352289,0.0019205369985011674
379.07787173522894,0.0019007287378910327
379.5847032852289,0.0018890576229314605
380.09142948522896,0.0018836128857902055
380.59805033522895,0.001881585230689252
381.1045658352289,0.0018802914272600811
381.610975985229,0.0018780503575623838
382.11728078522896,0.0018734348353635721
382.62348023522895,0.0018658276716904008
383.12957433522894,0.0018562732107295199
383.6355630852289,0.001846493317523481
384.141446485229,0.0018380669741987269
384.64722453522893,0.0018323925867235731
385.1528972352289,0.0018308801341054572
385.65846458522896,0.001833378848384453
386.1639265852289,0.0018370397972245663
386.669283235229,0.0018382293785048642
387.174534535229,0.0018342805138156803
387.6796804852289,0.0018238755660397565
388.18472108522894,0.001806972767385384
388.689656335229,0.0017842280346377296
389.19448623522896,0.0017574059751301716
389.699210785229,0.0017297022685332192
390.203829985229,0.00170454121802156
390.70834383522896,0.0016832427768523352
391.21275233522897,0.0016644675709534768
391.71705548522897,0.00164716621694733
392.22125328522895,0.0016316688810605988
392.725345735229,0.0016177665648887383
393.229332835229,0.0016043429695644315
393.73321458522895,0.0015907500959540847
394.236990985229,0.001576998158678508
394.7406620352289,0.0015630511166172967
395.24422773522895,0.0015495769639532649
395.74768808522896,0.0015380983595184717
396.25104308522896,0.001529297095764655
396.754292735229,0.0015229878739523683
397.2574370352289,0.001519422981055579
397.760475985229,0.0015193186946838454
398.2634095852289,0.0015232281860232365
398.76623783522894,0.0015306505779621648
399.2689607352289,0.0015393030996728781
399.771578285229,0.0015462752512965827
400.27409048522895,0.001550296329257297
400.77649733522895,0.0015516088950887003
401.278798835229,0.0015496818634406309
401.78099498522886,0.001542098644668568
402.28308578522893,0.0015265152908822692
402.7850712352289,0.001503187188259419
403.2869513352289,0.0014746713610056738
403.7887260852289,0.0014439810376223427
404.29039548522894,0.0014143388561277733
404.7919595352289,0.0013893979318436917
405.2934182352289,0.0013716627255286435
405.79477158522883,0.0013622922527990514
406.2960195852289,0.001362155310950246
406.797162235229,0.001371510869549436
407.29819953522895,0.0013888584962990609
407.79913148522894,0.0014104282476899378
408.2999580852289,0.0014317079057974105
408.80067933522895,0.0014492732083846744
409.30129523522885,0.00146005222455834
409.80180578522896,0.0014604252666681472
410.30221098522895,0.001448272572994132
410.8025108352289,0.0014249318653166523
411.30270533522895,0.0013943672564662895
411.80279448522896,0.001361145623358144
412.3027782852289,0.0013286175171293077
412.80265673522894,0.0012985875862497214
413.30242983522896,0.0012726973692809029
413.8020975852289,0.001252299964916488
414.3016599852289,0.0012383095339119341
414.8011170352289,0.0012331673993062626
415.3004687352289,0.0012405385655778374
415.7997150852289,0.0012627211626732003
416.2988560852289,0.0012991247275439797
416.7978917352289,0.0013473572090237536
417.2968220352289,0.0014049154284821689
417.7956469852289,0.0014681606764213291
418.29436658522894,0.0015316049529752272
418.792980835229,0.0015897117904137429
419.29148973522894,0.0016385804419173345
419.7898932852289,0.0016761322490941224
420.288191485229,0.001701343053503801
420.786384335229,0.0017144393151632498
421.28447183522894,0.001717355237622007
421.782453985229,0.0017141054721789917
422.2803307852289,0.001710173260661798
422.7781022352289,0.0017103483692199515
423.2757683352289,0.0017192231441653133
423.7733290852289,0.0017405348079226023
424.27078448522894,0.0017741761543287428
424.7681345352289,0.0018168092511909447
425.2653792352289,0.0018648395400645567
425.76251858522903,0.0019156839167854872
426.25955258522896,0.001966151046940214
426.756481235229,0.0020120362821749046
427.25330453522895,0.002050494963438398
427.7500224852289,0.0020810471942717774
428.24663508522895,0.0021046822820138048
428.74314233522887,0.0021233236872764145
429.23954423522895,0.0021390124506351464
429.735840785229,0.002152793510355592
430.2320319852289,0.002165321067515139
430.7281178352289,0.002177925702652234
431.224098335229,0.0021920067211814026
431.719973485229,0.0022084166617723474
432.21574328522894,0.0022270732238624277
432.7114077352289,0.002245799574209853
433.20696683522897,0.0022613697340855823
433.7024205852288,0.002271981537159303
434.1977689852289,0.0022776360533797585
434.6930120352289,0.0022789102142886787
435.18814973522893,0.0022762498122829047
435.68318208522885,0.0022707335658751536
436.178109085229,0.002264354107652022
436.6729307352289,0.0022589224486621183
437.16764703522887,0.002255643178387327
437.66225798522896,0.0022562835124340483
438.15676358522904,0.00226337440991847
438.651163835229,0.002279234021191636
439.14545873522906,0.0023060986328671358
439.639648285229,0.0023452746834789788
440.13373248522896,0.002395533021658393
440.627711335229,0.002452949606951263
441.1215848352289,0.002511846211521322
441.615352985229,0.0025672416994632296
442.1090157852289,0.002617424615017174
442.602573235229,0.002663400075169394
443.0960253352289,0.0027068021692519648
443.58937208522894,0.002749106638207616
444.08261348522893,0.002792223124833849
444.57574953522897,0.0028387031124048412
445.0687802352289,0.002890263789839009
445.5617055852288,0.002947092185812447
446.0545255852289,0.003008843000008388
446.547240235229,0.003075527301823399
447.03984953522894,0.003146618919652739
447.53235348522907,0.0032205303094367485
448.0247520852289,0.0032952939668015467
448.51704533522894,0.0033691977134786763
449.00923323522886,0.0034415318615494427
449.501315785229,0.003513248660491655
449.9932929852289,0.0035872797960554838
450.485164835229,0.0036674414082820137
450.97693133522887,0.0037568744160256513
451.46859248522895,0.003855804032049314
451.96014828522885,0.003962031391078679
452.451598735229,0.00407427490398213
452.94294383522885,0.004191187337357036
453.434183585229,0.004308088637141411
453.92531798522896,0.004417843643137846
454.41634703522897,0.004515085490006571
454.907270735229,0.004598550046765805
455.39808908522895,0.004669555245196294
455.8888020852289,0.0047302093582216615
456.3794097352288,0.004783230127742063
456.8699120352289,0.004830855879601616
457.3603089852289,0.004873858510790342
457.8506005852289,0.004911337459468241
458.3407868352289,0.004941605075332174
458.83086773522894,0.004963386141535066
459.3208432852288,0.004975537850452117
459.8107134852289,0.004977781848046615
460.300478335229,0.004970819609758358
460.79013783522885,0.004956018885225243
461.2796919852289,0.004935535514514679
461.76914078522884,0.004910762755496433
462.2584842352289,0.004883519451763405
462.7477223352289,0.0048577826836926925
463.2368550852289,0.00483794334642888
463.7258824852289,0.004827437664010921
464.21480453522895,0.004826476977434316
464.7036212352289,0.004831435229908186
465.1923325852289,0.004836845479074755
465.68093858522883,0.0048365565068270965
466.16943923522894,0.004825468342018484
466.657834535229,0.00480100680564824
467.14612448522894,0.004764135314780837
467.63430908522895,0.004718658543242218
468.122388335229,0.0046695108355813905
468.61036223522905,0.004622213686241556
469.0982307852289,0.004581176039362311
469.58599398522904,0.004549669607187023
470.07365183522893,0.004531221281643703
470.561204335229,0.00452874354164161
471.04865148522896,0.0045445796548209474
471.5359932852288,0.004580104638102668
472.02322973522877,0.004635272355218868
472.51036083522894,0.004709065480575267
472.99738658522887,0.00479829536857814
473.484306985229,0.004899124131610639
473.97112203522903,0.005009346625185069
474.4578317352289,0.005128508431275722
474.9444360852289,0.0052573066767975666
475.43093508522895,0.005396060779446123
475.9173287352289,0.0055452479331973
476.403617035229,0.005705750584517073
476.88979998522893,0.005878338006851784
477.3758775852289,0.006063308526609417
477.86184983522884,0.006260165147022363
478.34771673522897,0.00646934580168961
478.8334782852289,0.006692347385917402
479.319134485229,0.006930133299296895
479.80468533522895,0.00718187220076051
480.2901308352289,0.007444104522798308
480.775470985229,0.007712644193608913
481.2607057852288,0.007984676769642018
481.7458352352289,0.008258281700075984
482.23085933522884,0.008532015511688897
482.7157780852289,0.00880463618651284
483.20059148522887,0.009074392589040574
483.6852995352288,0.009337801888762003
484.16990223522885,0.009589932959831916
484.6543995852289,0.00982706860646313
485.138791585229,0.0100467758344706
485.6230782352289,0.010246743769985047
486.10725953522876,0.01042471083534025
486.59133548522897,0.010579256393745278
487.075306085229,0.010710586100768077
487.55917133522894,0.01081927160493
488.0429312352291,0.010905243422853934
488.52658578522903,0.010968480291728493
489.010134985229,0.01101063607023363
489.4935788352289,0.011035335712704304
489.97691733522896,0.011045836524804663
490.46015048522895,0.011043742008731832
490.9432782852289,0.011029710624876994
491.42630073522895,0.011003666310510123
491.90921783522896,0.010964693496699662
492.3920295852289,0.010911613452308823
492.8747359852289,0.010843371430168825
493.3573370352289,0.010758723769713924
493.839832735229,0.010655948357350172
494.3222230852289,0.01053331547871652
494.804508085229,0.010389410241924003
495.286687735229,0.010222998355125402
495.7687620352289,0.010033913044084592
496.2507309852289,0.0098234534921712
496.73259458522887,0.009594563009728482
497.21435283522885,0.009352209361356646
497.696005735229,0.009102901002108869
498.17755328522895,0.008853119094798722
498.658995485229,0.00860750345761459
499.1403323352287,0.008369002696261209
499.62156383522887,0.008139004389024204
500.10268998522895,0.00791745273212107
500.58371078522885,0.007704411459877215
501.0646262352289,0.007500187600905811
501.545436335229,0.007304833177659488
502.026141085229,0.007119138493326699
502.5067404852289,0.0069456164266217865
502.9872345352289,0.00678790840105076
503.467623235229,0.006649347945042955
503.9479065852288,0.006532874780964159
504.428084585229,0.006441485888287469
504.90815723522906,0.006377303165709998
505.38812453522894,0.006340330043693879
505.86798648522887,0.0063285987827195285
506.3477430852289,0.006339676729184821
506.8273943352289,0.006371226582009559
507.30694023522886,0.006420610807127026
507.786380785229,0.006485095966847416
508.26571598522895,0.006562146315098254
508.7449458352288,0.006649993117499897
509.22407033522893,0.006747638141367803
509.703089485229,0.006854068342018325
510.1820032852288,0.006969219071574733
510.66081173522895,0.007095001046210837
511.13951483522897,0.007234219726985202
511.61811258522886,0.007389136627421473
512.0966049852289,0.0075614519432143455
512.5749920352289,0.007752555426433909
513.0532737352289,0.007962601474937107
513.5314500852289,0.008190166018917883
514.0095210852289,0.008432309765183625
514.487486735229,0.008685856654651916
514.965347035229,0.008949087303353935
515.443101985229,0.009219712653826501
515.9207515852289,0.009492683015724465
516.398295835229,0.009762494429955018
516.8757347352289,0.010027093749478185
517.3530682852288,0.010288189762041516
517.8302964852288,0.010548943910276321
518.3074193352287,0.01081364084610604
518.7844368352288,0.011086871351709411
519.2613489852289,0.01137035416721425
519.738155785229,0.011662065068379548
520.2148572352288,0.0119590263535824
520.6914533352289,0.012259108256346086
521.167944085229,0.01255986454412031
521.6443294852288,0.012857651334825962
522.1206095352288,0.013147904439082519
522.5967842352289,0.013425600528424108
523.0728535852289,0.013685944121682886
523.5488175852288,0.013924518291370524
524.024676235229,0.014136618130877705
524.5004295352289,0.01431853648512422
524.9760774852289,0.014469166097973775
525.4516200852289,0.014588472401500562
525.9270573352287,0.014675319031804848
526.4023892352288,0.014727484388979122
526.877615785229,0.014743212980702629
527.3527369852287,0.014720736975120169
527.8277528352289,0.014658501088364839
528.3026633352287,0.01455755017923716
528.7774684852287,0.014421242241290278
529.2521682852288,0.014252888516169581
529.7267627352289,0.014054378396696526
530.2012518352288,0.013826368998521155
530.6756355852287,0.013568911665291478
531.1499139852286,0.013283065502757279
531.6240870352287,0.012971130940124828
532.0981547352288,0.012635550810695487
532.5721170852289,0.012278729454700868
533.0459740852287,0.01190243210504756
533.5197257352288,0.011508273435035849
533.9933720352287,0.01109851320819907
534.466912985229,0.010676050076773727
534.9403485852288,0.01024435740651476
535.4136788352289,0.009807065568715438
535.886903735229,0.00936725274696317
536.3600232852289,0.008927999213213732
536.8330374852288,0.008493129889457334
537.3059463352289,0.008066880494773077
537.7787498352288,0.007653112077088941
538.2514479852288,0.0072539352315639525
538.7240407852288,0.006869641961569815
539.1965282352288,0.006499707566204361
539.6689103352289,0.006144132220288209
540.1411870852289,0.005803507365504517
540.6133584852289,0.00547853010677745
541.0854245352291,0.0051702273505461645
541.557385235229,0.004879119027776201
542.029240585229,0.004605610447535171
542.5009905852289,0.004350182420059663
542.9726352352291,0.004112698241184383
543.444174535229,0.003892538844012305
543.9156084852289,0.0036887504789636545
544.3869370852289,0.00350022178674351
544.8581603352288,0.003325433043069585
545.3292782352288,0.003162094762341769
545.800290785229,0.0030076938119172883
546.2711979852287,0.0028604031256712482
546.7419998352289,0.0027186021191050124
547.212696335229,0.0025807478584515516
547.6832874852289,0.002446098015942237
548.1537732852288,0.002314361083190953
548.6241537352289,0.0021851273312546073
549.094428835229,0.002057203070241294
549.564598585229,0.0019287158417493878
550.034662985229,0.001799656385111619
550.504622035229,0.0016736918611967618
550.974475735229,0.0015549097981095601
551.4442240852287,0.0014446102325589758
551.9138670852288,0.0013435722245518447
552.3834047352289,0.0012540453421496654
552.8528370352288,0.0011772621936456747
553.3221639852288,0.0011121518016209712
553.7913855852288,0.0010575364495313383
554.260501835229,0.0010129132765447565
554.729512735229,0.0009771132918893497
555.1984182852287,0.0009471076172275344
555.6672184852289,0.0009191069803782726
556.135913335229,0.0008907488120076029
556.6045028352288,0.0008614562037044674
557.0729869852289,0.0008319612365842779
557.5413657852289,0.0008032548647905201
558.0096392352289,0.0007761844223537433
558.4778073352289,0.0007526414237359068
558.9458700852289,0.0007342542642205144
559.413827485229,0.000720008790259165
559.881679535229,0.0007079398681625719
560.3494262352289,0.0006971740382271119
560.8170675852288,0.0006861449147787758
561.2846035852289,0.0006718733149426822
561.7520342352288,0.0006524606847652758
562.2193595352289,0.0006278168582315001
562.6865794852289,0.0005980308746174632
563.153694085229,0.0005635864837208641
563.6207033352289,0.0005266105712176395
564.087607235229,0.0004899560101020765
564.5544057852289,0.00045619090584190136
565.021098985229,0.00042717211077907056
565.4876868352289,0.0004038626976549394
565.9541693352287,0.0003868873339138635
566.4205464852289,0.0003772217827286918
566.8868182852289,0.00037657492961395
567.3529847352289,0.0003856100779368836
567.8190458352288,0.0004018728780249723
568.2850015852289,0.00042047577515339646
568.7508519852287,0.00043670247881006464
569.2165970352288,0.0004478123964948764
569.6822367352289,0.0004535462689133033
570.1477710852288,0.0004552509131090469
570.6132000852288,0.0004539078925573652
571.0785237352288,0.0004495922036118959
571.5437420352289,0.00044217308668408604
572.0088549852289,0.0004317655043979993
572.473862585229,0.0004185459407495093
572.938764835229,0.00040330649092557735
573.4035617352289,0.00038827504780661874
573.8682532852289,0.0003762984272721689
574.332839485229,0.0003689309015964831
574.7973203352287,0.0003659119498928754
575.2616958352289,0.0003656281445078987
575.7259659852289,0.0003651177845593829
576.1901307852288,0.0003623259524365418
576.6541902352288,0.00035511278351615504
577.118144335229,0.0003438473453352679
577.5819930852288,0.00033334614372599664
578.045736485229,0.0003246080419011149
578.5093745352289,0.0003157837222631905
578.9729072352288,0.0003052208970776495
579.4363345852288,0.00029110750680943977
579.8996565852289,0.00027422982530034095
580.3628732352289,0.0002576396572543646
580.8259845352288,0.0002446852016539582
581.2889904852287,0.00023760852866178746
581.7518910852289,0.00023696162283020323
582.2146863352286,0.00024120948615623234
582.6773762352287,0.00024716977371258
583.1399607852287,0.00025196501217441153
583.6024399852288,0.000253623726894356
584.0648138352288,0.00025058085154020947
584.5270823352289,0.00024237997866369853
584.9892454852288,0.00022840923225784878
585.4513032852288,0.00020994834612388027
585.9132557352289,0.00018868953044035548
586.3751028352287,0.00016380888353037233
586.8368445852288,0.00013781926496512622
587.2984809852288,0.0001142263328438089
587.7600120352287,9.540310008636448e-05
588.2214377352288,8.490208864712548e-05
588.6827580852288,8.495797122611256e-05
589.1439730852289,9.495457261319007e-05
589.6050827352288,0.00011146267835543092
590.0660870352286,0.0001295491372774717
590.526985985229,0.00014486141713835235
590.9877795852289,0.00015481609826974906
591.4484678352288,0.00015791255135501326
591.9090507352288,0.00015288117020796925
592.3695282852289,0.00013933751473697745
592.8299004852289,0.00011815829748706431
593.2901673352288,9.088822901538855e-05
593.7503288352289,6.044920292502231e-05
594.2103849852289,3.1866560124734304e-05
594.6703357852289,1.0613268596106026e-05
595.1301812352289,0.0
595.5899213352287,8.620278214134001e-07
596.0495560852289,1.2757805187084852e-05
596.5090854852288,3.3625675160597945e-05
596.9685095352288,5.879318702935404e-05
597.4278282352288,8.144924936097742e-05
597.8870415852288,9.500557688892587e-05
598.3461495852288,9.500940425056107e-05
598.8051522352288,8.034352460477396e-05
599.2640495352288,5.313528126828826e-05
599.7228414852287,1.6526644529078516e-05
